Mini-Project 02 - How Do You Do ‘You Do You’? – STA 9750 Submission Material
…
resp_df |> summarise(min = min(n_children_under18, na.rm = TRUE),
                     max = max(n_children_under18, na.rm = TRUE),
                     mean = mean(n_children_under18, na.rm = TRUE))

# A tibble: 1 × 3
    min   max  mean
  <dbl> <dbl> <dbl>
1    -1    17  2.63

Code

act_df |> count(activity_location, sort = TRUE)

# A tibble: 26 × 2
   activity_location                      n
   <chr>                              <int>
 1 Respondent's Home                2095267
 2 <NA>                              921554
 3 Car/Truck/Motorcycle (Driver)     672364
 4 Respondent's Workplace            231498
 5 Someone Else's Home               161397
 6 Car/Truck/Motorcycle (Passenger)  153114
 7 Other Place                       146333
 8 Other Store/Mall                   97664
 9 Restaurant or Bar                  92900
10 Walking                            65016
# ℹ 16 more rows
…
resp_df |> summarise(min = min(n_children_under18, na.rm = TRUE),
                     max = max(n_children_under18, na.rm = TRUE),
                     mean = mean(n_children_under18, na.rm = TRUE))

# A tibble: 1 × 3
    min   max  mean
  <dbl> <dbl> <dbl>
1    -1    17  2.63

Code

act_df |> count(activity_location, sort = TRUE)

# A tibble: 26 × 2
   activity_location                      n
   <chr>                              <int>
 1 Respondent's Home                2095267
 2 <NA>                              921554
 3 Car/Truck/Motorcycle (Driver)     672364
 4 Respondent's Workplace            231498
 5 Someone Else's Home               161397
 6 Car/Truck/Motorcycle (Passenger)  153114
 7 Other Place                       146333
 8 Other Store/Mall                   97664
 9 Restaurant or Bar                  92900
10 Walking                            65016
# ℹ 16 more rows
…
