Mini-Project 04 - Going for the Gold – STA 9750 Submission Material
…
nrow(editions)

[1] 57

Code

editions

# A tibble: 57 × 6
   season olympiad_rn edition_id host_noc  year olympiad
   <chr>  <chr>            <int> <chr>    <int>    <int>
 1 Summer I                    1 GRE       1896        1
 2 Summer II                   2 FRA       1900        2
 3 Summer III                  3 USA       1904        3
 4 Summer IV                   5 GBR       1908        4
 5 Summer V                    6 SWE       1912        5
 6 Summer VI                  50 GER       1916        6
 7 Summer VII                  7 BEL       1920        7
 8 Summer VIII                 8 FRA       1924        8
 9 Winter I                   29 FRA       1924        1
10 Summer IX                   9 NED       1928        9
# ℹ 47 more rows
…
Code

# Find Olympedia codes not in necountries, ranked by medal count

unmatched <- olympics |>
  distinct(noc) |>
  anti_join(countries_sf, by = c("noc" = "iso3"))

unmatched |>
  left_join(olympics |> group_by(noc) |> summarise(total_gold = sum(gold)),
            by = "noc") |>
  arrange(desc(total_gold))

# A tibble: 68 × 2
   noc   total_gold
   <chr>      <int>
 1 URS          473
 2 GER          367
 3 GDR          192
 4 NED          170
 5 SUI          130
 6 FRG           68
 7 BUL           58
 8 TCH           55
 9 EUN           54
10 DEN           51
# ℹ 58 more rows
…
Code

# Verify what's left unmatched
olympics_clean |>
  distinct(noc_iso) |>
  anti_join(countries_sf, by = c("noc_iso" = "iso3")) |>
  left_join(olympics_clean |> group_by(noc_iso) |> summarise(total_gold = sum(gold)),
            by = "noc_iso") |>
  arrange(desc(total_gold))

# A tibble: 40 × 2
   noc_iso total_gold
   <chr>        <int>
 1 YUG             26
 2 MIX              4
 3 HKG              4
 4 ANZ              3
 5 KOS              3
 6 PRI              2
 7 SCG              2
 8 FIJ              2
 9 BER              1
10 CRC              1
# ℹ 30 more rows
…
